Social Media · Portfolio website of Josephine Haag
…
# calculate a 95% bootstrap confidence interval for the mean
boot_email <- gss_email %>% 
  specify(response = email) %>% 
  generate(reps = 1000, type = "bootstrap") %>% 
  calculate(stat = "mean") 
  
boot_email

## # A tibble: 1,000 x 2
##    replicate  stat
##        <int> <dbl>
##  1         1  394.
##  2         2  445.
##  3         3  384.
##  4         4  428.
##  5         5  407.
##  6         6  431.
##  7         7  429.
##  8         8  410.
##  9         9  404.
## 10        10  415.
## # … with 990 more rows
…
