GDP Components · Portfolio website of Josephine Haag
…
wide_GDP_data <- tidy_GDP_data %>%
  pivot_wider(names_from = "Components", values_from = "Amount") %>%
  select(Country, Year, "Household expenditure":"GDP")
wide_GDP_data

## # A tibble: 10,560 x 9
##    Country Year  `Household expe… `Government exp… `Gross capital …
##    <chr>   <chr>            <dbl>            <dbl>            <dbl>
##  1 Afghan… 1970              5.07            0.372            0.985
##  2 Afghan… 1971              4.84            0.382            1.05 
##  3 Afghan… 1972              4.70            0.402            0.919
##  4 Afghan… 1973              5.21            0.421            0.919
##  5 Afghan… 1974              5.59            0.431            1.18 
##  6 Afghan… 1975              5.65            0.598            1.37 
##  7 Afghan… 1976              5.68            0.627            2.03 
##  8 Afghan… 1977              6.15            0.676            1.92 
##  9 Afghan… 1978              6.30            0.725            2.22 
## 10 Afghan… 1979              6.15            0.708            2.07 
## # … with 10,550 more rows, and 4 more variables: `Gross fixed capital` <dbl>,
## #   Exports <dbl>, Imports <dbl>, GDP <dbl>

wide_GDP_calc <- wide_GDP_data %>%
   mutate(`Net Exports` = Exports - Imports) %>% 
   # GDP = C + I + G + Nx
   mutate(GDP_calc = (`Household expenditure` + `Gross capital formation` + `Government expenditure` + `Net Exports`))
 
wide_GDP_calc

## # A tibble: 10,560 x 11
##    Country Year  `Household expe… `Government exp… `Gross capital …
##    <chr>   <chr>            <dbl>            <dbl>            <dbl>
##  1 Afghan… 1970              5.07            0.372            0.985
##  2 Afghan… 1971              4.84            0.382            1.05 
##  3 Afghan… 1972              4.70            0.402            0.919
##  4 Afghan… 1973              5.21            0.421            0.919
##  5 Afghan… 1974              5.59            0.431            1.18 
##  6 Afghan… 1975              5.65            0.598            1.37 
##  7 Afghan… 1976              5.68            0.627            2.03 
##  8 Afghan… 1977              6.15            0.676            1.92 
##  9 Afghan… 1978              6.30            0.725            2.22 
## 10 Afghan… 1979              6.15            0.708            2.07 
## # … with 10,550 more rows, and 6 more variables: `Gross fixed capital` <dbl>,
## #   Exports <dbl>, Imports <dbl>, GDP <dbl>, `Net Exports` <dbl>,
## #   GDP_calc <dbl>

We can see that for every observation there can be small deviations between the calculated and the given GDP ranging up to 6%.

# calculate % difference between GDP given and GDP calculated
wide_GDP_calc_diff <- wide_GDP_calc %>%
  mutate(GDP_diff = abs((GDP - GDP_calc)/GDP))
         
wide_GDP_calc_diff 

## # A tibble: 10,560 x 12
##    Country Year  `Household expe… `Government exp… `Gross capital …
##    <chr>   <chr>            <dbl>            <dbl>            <dbl>
##  1 Afghan… 1970              5.07            0.372            0.985
##  2 Afghan… 1971              4.84            0.382            1.05 
##  3 Afghan… 1972              4.70            0.402            0.919
##  4 Afghan… 1973              5.21            0.421            0.919
##  5 Afghan… 1974              5.59            0.431            1.18 
##  6 Afghan… 1975              5.65            0.598            1.37 
##  7 Afghan… 1976              5.68            0.627            2.03 
##  8 Afghan… 1977              6.15            0.676            1.92 
##  9 Afghan… 1978              6.30            0.725            2.22 
## 10 Afghan… 1979              6.15            0.708            2.07 
## # … with 10,550 more rows, and 7 more variables: `Gross fixed capital` <dbl>,
## #   Exports <dbl>, Imports <dbl>, GDP <dbl>, `Net Exports` <dbl>,
## #   GDP_calc <dbl>, GDP_diff <dbl>
…
Since I am German, was born in the United States and grew up in Germany, I will compare these three countries in my next analysis, which investigates the different GDP components over time.

# make a second country list
country_list_2 <- c("United States","Switzerland", "Germany")

# mutate into percentage
wide_GDP_calc_prop <- wide_GDP_calc %>%
  mutate(`Net exports` = `Net Exports` / GDP_calc,
         `Household Expenditure` = `Household expenditure` / GDP_calc,
         `Government Expenditure` = `Government expenditure` / GDP_calc,
         `Gross Capital Formation` = `Gross capital formation` / GDP_calc ) %>%
  select(Country, Year, "Net exports":"Gross Capital Formation")
wide_GDP_calc_prop

## # A tibble: 10,560 x 6
##    Country Year  `Net exports` `Household Expe… `Government Exp…
##    <chr>   <chr>         <dbl>            <dbl>            <dbl>
##  1 Afghan… 1970       -0.0113             0.798           0.0587
##  2 Afghan… 1971       -0.0201             0.787           0.0621
##  3 Afghan… 1972       -0.0145             0.792           0.0677
##  4 Afghan… 1973       -0.00923            0.803           0.0649
##  5 Afghan… 1974       -0.0152             0.788           0.0608
##  6 Afghan… 1975       -0.0191             0.756           0.0800
##  7 Afghan… 1976       -0.0180             0.693           0.0765
##  8 Afghan… 1977       -0.0292             0.724           0.0796
##  9 Afghan… 1978       -0.0302             0.702           0.0808
## 10 Afghan… 1979       -0.0292             0.709           0.0815
## # … with 10,550 more rows, and 1 more variable: `Gross Capital Formation` <dbl>

long_GDP_prop <- wide_GDP_calc_prop %>%
    pivot_longer(cols = c(`Net exports`:`Gross Capital Formation`),
                 names_to = "Component", 
                 values_to = "Proportion")
long_GDP_prop

## # A tibble: 42,240 x 4
##    Country     Year  Component               Proportion
##    <chr>       <chr> <chr>                        <dbl>
##  1 Afghanistan 1970  Net exports                -0.0113
##  2 Afghanistan 1970  Household Expenditure       0.798 
##  3 Afghanistan 1970  Government Expenditure      0.0587
##  4 Afghanistan 1970  Gross Capital Formation     0.155 
##  5 Afghanistan 1971  Net exports                -0.0201
##  6 Afghanistan 1971  Household Expenditure       0.787 
##  7 Afghanistan 1971  Government Expenditure      0.0621
##  8 Afghanistan 1971  Gross Capital Formation     0.171 
##  9 Afghanistan 1972  Net exports                -0.0145
## 10 Afghanistan 1972  Household Expenditure       0.792 
## # … with 42,230 more rows
…
